<svg xmlns="http://www.w3.org/2000/svg" width="92" height="36" viewBox="0 0 92 36">
  <g id="グループ_683" data-name="グループ 683" transform="translate(-493 -624)">
    <g id="グループ_680" data-name="グループ 680" transform="translate(-5.28)">
      <rect id="長方形_396" data-name="長方形 396" width="92" height="30" rx="4" transform="translate(498.28 624)" fill="#666"/>
      <text id="オファーする" transform="translate(498.28 633)" fill="#fff" font-size="12" font-family="HiraginoSans-W6, Hiragino Sans" letter-spacing="0.04em"><tspan x="8.8" y="11">オファーする</tspan></text>
    </g>
    <path id="多角形_2" data-name="多角形 2" d="M4,0,8,6H0Z" transform="translate(543 660) rotate(180)" fill="#666"/>
  </g>
</svg>
