<svg xmlns="http://www.w3.org/2000/svg" width="30" height="30" viewBox="0 0 30 30">
  <g id="グループ_299" data-name="グループ 299" transform="translate(-518 -846)">
    <rect id="長方形_307" data-name="長方形 307" width="30" height="30" rx="4" transform="translate(518 846)" fill="#f8f8f8"/>
    <g id="グループ_298" data-name="グループ 298">
      <path id="パス_40" data-name="パス 40" d="M908.211,2823.045a2.219,2.219,0,1,0-2.219-2.219A2.219,2.219,0,0,0,908.211,2823.045Zm0-3.182a.96.96,0,1,1-.96.96h0A.96.96,0,0,1,908.211,2819.863Z" transform="translate(-377.044 -1961.605)" fill="#666"/>
      <path id="パス_41" data-name="パス 41" d="M919.053,2824.406a3.871,3.871,0,0,0-.417-.355v-7.021a2.177,2.177,0,0,0-2.175-2.175H901.388a2.177,2.177,0,0,0-2.175,2.175v10.126a2.177,2.177,0,0,0,2.175,2.175h11.969a3.774,3.774,0,1,0,5.7-4.924Zm-18.583-7.376a.92.92,0,0,1,.919-.918h15.074a.92.92,0,0,1,.918.918v6.407a3.785,3.785,0,0,0-2.472.164l-2.219-1.49a1.211,1.211,0,0,0-1.36.014l-3.656,2.56-2.889-1.594a1.194,1.194,0,0,0-1.17,0l-3.146,1.77Zm.919,11.045a.919.919,0,0,1-.919-.918v-.88a.631.631,0,0,0,.165-.061l3.57-2.009,2.9,1.6a1.2,1.2,0,0,0,1.263-.067l3.657-2.559,1.752,1.176c-.02.019-.041.035-.061.055a3.77,3.77,0,0,0-.97,3.668Z" transform="translate(-375.688 -1960.855)" fill="#666"/>
      <path id="パス_40-2" data-name="パス 40" d="M919.746,2832.971a3.77,3.77,0,1,0-3.77-3.77A3.77,3.77,0,0,0,919.746,2832.971Z" transform="translate(-379.042 -1962.971)" fill="#cb0015"/>
      <path id="パス_42" data-name="パス 42" d="M921.892,2829.016h-1.253v-1.254a.538.538,0,0,0-1.074,0v1.253h-1.253a.537.537,0,1,0,0,1.074h1.253v1.253a.537.537,0,1,0,1.074,0v-1.253h1.253a.537.537,0,0,0,0-1.074Z" transform="translate(-379.401 -1963.334)" fill="#fff"/>
    </g>
  </g>
</svg>
