<svg xmlns="http://www.w3.org/2000/svg" width="8" height="8" viewBox="0 0 8 8">
  <g id="グループ_861" data-name="グループ 861" transform="translate(-995 -698)">
    <path id="パス_54" data-name="パス 54" d="M1044.165,1466.971h-.834v-5.979h5.979v.834h-5.145Z" transform="translate(-48.33 -762.991)" fill="#666"/>
    <path id="パス_55" data-name="パス 55" d="M1052.533,1470.194h-6.4v-6.4h6.4Zm-5.562-.835h4.728v-4.727h-4.728Z" transform="translate(-49.533 -764.194)" fill="#666"/>
  </g>
</svg>
