<svg xmlns="http://www.w3.org/2000/svg" width="20" height="20" viewBox="0 0 20 20">
  <g id="グループ_719" data-name="グループ 719" transform="translate(22289.799 12245)">
    <g id="グループ_718" data-name="グループ 718" transform="translate(-22487.795 -12410.55)">
      <g id="グループ_4" data-name="グループ 4" transform="translate(197.997 165.55)">
        <g id="パス_44" data-name="パス 44" transform="translate(-197.997 -165.55)" fill="none">
          <path d="M198,175.55a10,10,0,1,0,10-10A10.011,10.011,0,0,0,198,175.55Z" stroke="none"/>
          <path d="M 207.9970397949219 166.5500640869141 C 203.034423828125 166.5500640869141 198.9970397949219 170.5874328613281 198.9970397949219 175.550048828125 C 198.9970397949219 180.5126800537109 203.034423828125 184.5500640869141 207.9970397949219 184.5500640869141 C 212.9596557617188 184.5500640869141 216.9970550537109 180.5126800537109 216.9970550537109 175.550048828125 C 216.9970550537109 170.5874328613281 212.9596557617188 166.5500640869141 207.9970397949219 166.5500640869141 M 207.9970397949219 165.5500640869141 C 213.51123046875 165.5500640869141 217.9970550537109 170.0358581542969 217.9970550537109 175.550048828125 C 217.9970550537109 181.0642242431641 213.51123046875 185.5500640869141 207.9970397949219 185.5500640869141 C 202.4832763671875 185.5500640869141 197.9970397949219 181.0642242431641 197.9970397949219 175.550048828125 C 197.9970397949219 170.0358581542969 202.4832763671875 165.5500640869141 207.9970397949219 165.5500640869141 Z" stroke="none" fill="#cb0015"/>
        </g>
      </g>
      <g id="グループ_5" data-name="グループ 5" transform="translate(205.044 169.974)">
        <path id="パス_45" data-name="パス 45" d="M221.251,177.965a1.78,1.78,0,0,0-1.8-1.8,1.705,1.705,0,0,0-1.267.529,1.8,1.8,0,0,0,0,2.535,1.727,1.727,0,0,0,1.267.522,1.748,1.748,0,0,0,1.268-.522,1.715,1.715,0,0,0,.53-1.267Z" transform="translate(-216.517 -176.167)" fill="#cb0015" fill-rule="evenodd"/>
        <path id="パス_46" data-name="パス 46" d="M220.816,193.565v-.431a1.3,1.3,0,0,1-1.139-.513,3.251,3.251,0,0,1-.175-1.331v-4.415h-4.592v.454a1.3,1.3,0,0,1,1.139.525,3.2,3.2,0,0,1,.176,1.317v2.124a2.59,2.59,0,0,1-.235,1.423,1.433,1.433,0,0,1-1.08.418v.431Z" transform="translate(-214.911 -182.413)" fill="#cb0015" fill-rule="evenodd"/>
      </g>
    </g>
  </g>
</svg>
