<svg xmlns="http://www.w3.org/2000/svg" width="35.734" height="56" viewBox="0 0 35.734 56">
  <path id="_3" data-name="3" d="M973.406,1405.174a19.632,19.632,0,0,1-9.524-2.256,16.869,16.869,0,0,1-6.517-6.158,16.608,16.608,0,0,1-2.363-8.773,3.786,3.786,0,0,1,.967-2.685,3.068,3.068,0,0,1,2.327-1.038,3.035,3.035,0,0,1,2.363,1.038,3.869,3.869,0,0,1,.931,2.685,10.2,10.2,0,0,0,1.5,5.407,11.131,11.131,0,0,0,4.081,3.938,11.5,11.5,0,0,0,5.8,1.469,10.953,10.953,0,0,0,7.626-2.614,9.373,9.373,0,0,0,2.9-7.34,11.237,11.237,0,0,0-1.29-5.407,10.247,10.247,0,0,0-3.508-3.831,9.048,9.048,0,0,0-5.013-1.433,3.479,3.479,0,0,1-2.614-1.074,3.661,3.661,0,0,1-1.038-2.649,3.551,3.551,0,0,1,3.652-3.653,7.832,7.832,0,0,0,3.867-1.038,9.067,9.067,0,0,0,3.079-2.793,6.806,6.806,0,0,0,1.217-3.974,6.978,6.978,0,0,0-2.291-5.3,8.241,8.241,0,0,0-5.872-2.149,11.411,11.411,0,0,0-4.977,1.075,9.352,9.352,0,0,0-3.581,2.864,6.575,6.575,0,0,0-1.325,4.01,4.141,4.141,0,0,1-.931,2.757,2.947,2.947,0,0,1-2.363,1.11,3.063,3.063,0,0,1-2.327-1.038,3.687,3.687,0,0,1-.967-2.614,13.334,13.334,0,0,1,2.149-7.448,14.958,14.958,0,0,1,5.872-5.191,18.026,18.026,0,0,1,8.306-1.9,15.871,15.871,0,0,1,7.627,1.826,14.129,14.129,0,0,1,5.371,4.941,12.923,12.923,0,0,1,1.969,7.054,9.627,9.627,0,0,1-1.253,4.941,13.135,13.135,0,0,1-3.187,3.688,20.308,20.308,0,0,1-4.082,2.542,17,17,0,0,1,6.159,3.473,13.433,13.433,0,0,1,3.473,5.049,17.1,17.1,0,0,1,1.11,6.23,15.125,15.125,0,0,1-2.363,8.343,16.743,16.743,0,0,1-6.3,5.8A18.034,18.034,0,0,1,973.406,1405.174Z" transform="translate(-955.002 -1349.174)" fill="#c5282a"/>
</svg>
