<svg xmlns="http://www.w3.org/2000/svg" width="18.499" height="56" viewBox="0 0 18.499 56">
  <path id="_1" data-name="1" d="M178.774,1405.174a3.44,3.44,0,0,1-2.51-1.076,3.52,3.52,0,0,1-1.076-2.581v-43.739L169.954,1360a6.032,6.032,0,0,1-2.294.5,3.615,3.615,0,0,1-2.618-1,3.429,3.429,0,0,1-1.039-2.581,3.88,3.88,0,0,1,.574-2.08,3.3,3.3,0,0,1,1.792-1.362l11.186-4.015a4.1,4.1,0,0,1,.717-.215,3.3,3.3,0,0,1,.645-.072,3.4,3.4,0,0,1,2.617,1.04,3.788,3.788,0,0,1,.968,2.688v48.615a3.523,3.523,0,0,1-1.075,2.581A3.61,3.61,0,0,1,178.774,1405.174Z" transform="translate(-164.003 -1349.174)" fill="#c5282a"/>
</svg>
