<svg xmlns="http://www.w3.org/2000/svg" width="1440" height="6" viewBox="0 0 1440 6">
  <g id="Group_467" data-name="Group 467" transform="translate(0 -8181.092)">
    <rect id="border" width="1440" height="6" transform="translate(0 8181.092)" fill="#c5282a" opacity="0.6"/>
  </g>
</svg>
