{
  "files": {
<<<<<<< HEAD
    "static/js/0.16592ca4.chunk.js": "/static/js/0.16592ca4.chunk.js",
    "static/js/0.16592ca4.chunk.js.map": "/static/js/0.16592ca4.chunk.js.map",
    "main.css": "/static/css/main.1f6c2dd6.chunk.css",
    "main.js": "/static/js/main.e316159e.chunk.js",
    "main.js.map": "/static/js/main.e316159e.chunk.js.map",
    "polyfills-dom.js": "/static/js/polyfills-dom.d6f74b2e.chunk.js",
    "polyfills-dom.js.map": "/static/js/polyfills-dom.d6f74b2e.chunk.js.map",
    "runtime-main.js": "/static/js/runtime-main.58b2cc3d.js",
    "runtime-main.js.map": "/static/js/runtime-main.58b2cc3d.js.map",
    "static/css/4.70022709.chunk.css": "/static/css/4.70022709.chunk.css",
    "static/js/4.f624b172.chunk.js": "/static/js/4.f624b172.chunk.js",
    "static/js/4.f624b172.chunk.js.map": "/static/js/4.f624b172.chunk.js.map",
    "static/js/5.a1c4f5a7.chunk.js": "/static/js/5.a1c4f5a7.chunk.js",
    "static/js/5.a1c4f5a7.chunk.js.map": "/static/js/5.a1c4f5a7.chunk.js.map",
    "static/js/6.ea9847fe.chunk.js": "/static/js/6.ea9847fe.chunk.js",
    "static/js/6.ea9847fe.chunk.js.map": "/static/js/6.ea9847fe.chunk.js.map",
    "static/js/7.9b25b661.chunk.js": "/static/js/7.9b25b661.chunk.js",
    "static/js/7.9b25b661.chunk.js.map": "/static/js/7.9b25b661.chunk.js.map",
    "static/js/8.26810891.chunk.js": "/static/js/8.26810891.chunk.js",
    "static/js/8.26810891.chunk.js.map": "/static/js/8.26810891.chunk.js.map",
    "static/js/9.0914fa39.chunk.js": "/static/js/9.0914fa39.chunk.js",
    "static/js/9.0914fa39.chunk.js.map": "/static/js/9.0914fa39.chunk.js.map",
    "static/js/10.159a3586.chunk.js": "/static/js/10.159a3586.chunk.js",
    "static/js/10.159a3586.chunk.js.map": "/static/js/10.159a3586.chunk.js.map",
    "static/js/11.c4859082.chunk.js": "/static/js/11.c4859082.chunk.js",
    "static/js/11.c4859082.chunk.js.map": "/static/js/11.c4859082.chunk.js.map",
    "static/js/12.bee2825e.chunk.js": "/static/js/12.bee2825e.chunk.js",
    "static/js/12.bee2825e.chunk.js.map": "/static/js/12.bee2825e.chunk.js.map",
    "static/js/13.51c571a4.chunk.js": "/static/js/13.51c571a4.chunk.js",
    "static/js/13.51c571a4.chunk.js.map": "/static/js/13.51c571a4.chunk.js.map",
    "static/js/14.3d89c01b.chunk.js": "/static/js/14.3d89c01b.chunk.js",
    "static/js/14.3d89c01b.chunk.js.map": "/static/js/14.3d89c01b.chunk.js.map",
    "static/js/15.e34762e9.chunk.js": "/static/js/15.e34762e9.chunk.js",
    "static/js/15.e34762e9.chunk.js.map": "/static/js/15.e34762e9.chunk.js.map",
    "static/js/16.c18e4365.chunk.js": "/static/js/16.c18e4365.chunk.js",
    "static/js/16.c18e4365.chunk.js.map": "/static/js/16.c18e4365.chunk.js.map",
    "static/js/17.cd2ddd9d.chunk.js": "/static/js/17.cd2ddd9d.chunk.js",
    "static/js/17.cd2ddd9d.chunk.js.map": "/static/js/17.cd2ddd9d.chunk.js.map",
    "static/js/18.d55f1a9c.chunk.js": "/static/js/18.d55f1a9c.chunk.js",
    "static/js/18.d55f1a9c.chunk.js.map": "/static/js/18.d55f1a9c.chunk.js.map",
    "static/js/19.00aaec79.chunk.js": "/static/js/19.00aaec79.chunk.js",
    "static/js/19.00aaec79.chunk.js.map": "/static/js/19.00aaec79.chunk.js.map",
    "static/js/20.b78f6b43.chunk.js": "/static/js/20.b78f6b43.chunk.js",
    "static/js/20.b78f6b43.chunk.js.map": "/static/js/20.b78f6b43.chunk.js.map",
    "static/js/21.e435ee97.chunk.js": "/static/js/21.e435ee97.chunk.js",
    "static/js/21.e435ee97.chunk.js.map": "/static/js/21.e435ee97.chunk.js.map",
    "static/js/22.89d01b66.chunk.js": "/static/js/22.89d01b66.chunk.js",
    "static/js/22.89d01b66.chunk.js.map": "/static/js/22.89d01b66.chunk.js.map",
    "static/js/23.fe177b13.chunk.js": "/static/js/23.fe177b13.chunk.js",
    "static/js/23.fe177b13.chunk.js.map": "/static/js/23.fe177b13.chunk.js.map",
    "static/js/24.d3810786.chunk.js": "/static/js/24.d3810786.chunk.js",
    "static/js/24.d3810786.chunk.js.map": "/static/js/24.d3810786.chunk.js.map",
    "static/js/25.60992a7f.chunk.js": "/static/js/25.60992a7f.chunk.js",
    "static/js/25.60992a7f.chunk.js.map": "/static/js/25.60992a7f.chunk.js.map",
    "static/js/26.d39092ea.chunk.js": "/static/js/26.d39092ea.chunk.js",
    "static/js/26.d39092ea.chunk.js.map": "/static/js/26.d39092ea.chunk.js.map",
    "static/js/27.a6444028.chunk.js": "/static/js/27.a6444028.chunk.js",
    "static/js/27.a6444028.chunk.js.map": "/static/js/27.a6444028.chunk.js.map",
    "static/js/28.6fa18bae.chunk.js": "/static/js/28.6fa18bae.chunk.js",
    "static/js/28.6fa18bae.chunk.js.map": "/static/js/28.6fa18bae.chunk.js.map",
    "static/js/29.5827a87d.chunk.js": "/static/js/29.5827a87d.chunk.js",
    "static/js/29.5827a87d.chunk.js.map": "/static/js/29.5827a87d.chunk.js.map",
    "static/js/30.12345807.chunk.js": "/static/js/30.12345807.chunk.js",
    "static/js/30.12345807.chunk.js.map": "/static/js/30.12345807.chunk.js.map",
    "static/js/31.c9360ea6.chunk.js": "/static/js/31.c9360ea6.chunk.js",
    "static/js/31.c9360ea6.chunk.js.map": "/static/js/31.c9360ea6.chunk.js.map",
    "static/js/32.ff59dc93.chunk.js": "/static/js/32.ff59dc93.chunk.js",
    "static/js/32.ff59dc93.chunk.js.map": "/static/js/32.ff59dc93.chunk.js.map",
    "static/js/33.54ebc6a9.chunk.js": "/static/js/33.54ebc6a9.chunk.js",
    "static/js/33.54ebc6a9.chunk.js.map": "/static/js/33.54ebc6a9.chunk.js.map",
    "static/js/34.4e481119.chunk.js": "/static/js/34.4e481119.chunk.js",
    "static/js/34.4e481119.chunk.js.map": "/static/js/34.4e481119.chunk.js.map",
    "static/js/35.4d2b34f6.chunk.js": "/static/js/35.4d2b34f6.chunk.js",
    "static/js/35.4d2b34f6.chunk.js.map": "/static/js/35.4d2b34f6.chunk.js.map",
    "static/js/36.a02a671e.chunk.js": "/static/js/36.a02a671e.chunk.js",
    "static/js/36.a02a671e.chunk.js.map": "/static/js/36.a02a671e.chunk.js.map",
    "static/js/37.5ac1a289.chunk.js": "/static/js/37.5ac1a289.chunk.js",
    "static/js/37.5ac1a289.chunk.js.map": "/static/js/37.5ac1a289.chunk.js.map",
    "static/js/38.f2396111.chunk.js": "/static/js/38.f2396111.chunk.js",
    "static/js/38.f2396111.chunk.js.map": "/static/js/38.f2396111.chunk.js.map",
    "static/js/39.b5012ff5.chunk.js": "/static/js/39.b5012ff5.chunk.js",
    "static/js/39.b5012ff5.chunk.js.map": "/static/js/39.b5012ff5.chunk.js.map",
    "static/js/40.d90b1b9a.chunk.js": "/static/js/40.d90b1b9a.chunk.js",
    "static/js/40.d90b1b9a.chunk.js.map": "/static/js/40.d90b1b9a.chunk.js.map",
    "static/js/41.c0511b4a.chunk.js": "/static/js/41.c0511b4a.chunk.js",
    "static/js/41.c0511b4a.chunk.js.map": "/static/js/41.c0511b4a.chunk.js.map",
    "static/js/42.ced7ef24.chunk.js": "/static/js/42.ced7ef24.chunk.js",
    "static/js/42.ced7ef24.chunk.js.map": "/static/js/42.ced7ef24.chunk.js.map",
    "static/js/43.bcc4a6cf.chunk.js": "/static/js/43.bcc4a6cf.chunk.js",
    "static/js/43.bcc4a6cf.chunk.js.map": "/static/js/43.bcc4a6cf.chunk.js.map",
    "static/js/44.161e80b0.chunk.js": "/static/js/44.161e80b0.chunk.js",
    "static/js/44.161e80b0.chunk.js.map": "/static/js/44.161e80b0.chunk.js.map",
    "static/js/45.d020d2ec.chunk.js": "/static/js/45.d020d2ec.chunk.js",
    "static/js/45.d020d2ec.chunk.js.map": "/static/js/45.d020d2ec.chunk.js.map",
    "static/js/46.3fe6b5fd.chunk.js": "/static/js/46.3fe6b5fd.chunk.js",
    "static/js/46.3fe6b5fd.chunk.js.map": "/static/js/46.3fe6b5fd.chunk.js.map",
    "static/js/47.0b43b71e.chunk.js": "/static/js/47.0b43b71e.chunk.js",
    "static/js/47.0b43b71e.chunk.js.map": "/static/js/47.0b43b71e.chunk.js.map",
    "static/js/48.18f930c0.chunk.js": "/static/js/48.18f930c0.chunk.js",
    "static/js/48.18f930c0.chunk.js.map": "/static/js/48.18f930c0.chunk.js.map",
    "static/js/49.40865de9.chunk.js": "/static/js/49.40865de9.chunk.js",
    "static/js/49.40865de9.chunk.js.map": "/static/js/49.40865de9.chunk.js.map",
    "static/js/50.32649372.chunk.js": "/static/js/50.32649372.chunk.js",
    "static/js/50.32649372.chunk.js.map": "/static/js/50.32649372.chunk.js.map",
    "static/js/51.0b739e5e.chunk.js": "/static/js/51.0b739e5e.chunk.js",
    "static/js/51.0b739e5e.chunk.js.map": "/static/js/51.0b739e5e.chunk.js.map",
    "static/js/52.d87211d5.chunk.js": "/static/js/52.d87211d5.chunk.js",
    "static/js/52.d87211d5.chunk.js.map": "/static/js/52.d87211d5.chunk.js.map",
    "static/js/53.cab4bbc0.chunk.js": "/static/js/53.cab4bbc0.chunk.js",
    "static/js/53.cab4bbc0.chunk.js.map": "/static/js/53.cab4bbc0.chunk.js.map",
    "static/js/54.709a4e05.chunk.js": "/static/js/54.709a4e05.chunk.js",
    "static/js/54.709a4e05.chunk.js.map": "/static/js/54.709a4e05.chunk.js.map",
    "static/js/55.99f210a2.chunk.js": "/static/js/55.99f210a2.chunk.js",
    "static/js/55.99f210a2.chunk.js.map": "/static/js/55.99f210a2.chunk.js.map",
    "static/js/56.da9a2484.chunk.js": "/static/js/56.da9a2484.chunk.js",
    "static/js/56.da9a2484.chunk.js.map": "/static/js/56.da9a2484.chunk.js.map",
    "static/js/57.f3171952.chunk.js": "/static/js/57.f3171952.chunk.js",
    "static/js/57.f3171952.chunk.js.map": "/static/js/57.f3171952.chunk.js.map",
    "index.html": "/index.html",
    "static/css/4.70022709.chunk.css.map": "/static/css/4.70022709.chunk.css.map",
    "static/css/main.1f6c2dd6.chunk.css.map": "/static/css/main.1f6c2dd6.chunk.css.map",
    "static/js/4.f624b172.chunk.js.LICENSE.txt": "/static/js/4.f624b172.chunk.js.LICENSE.txt",
    "static/js/52.d87211d5.chunk.js.LICENSE.txt": "/static/js/52.d87211d5.chunk.js.LICENSE.txt",
    "static/js/polyfills-dom.d6f74b2e.chunk.js.LICENSE.txt": "/static/js/polyfills-dom.d6f74b2e.chunk.js.LICENSE.txt",
    "static/media/Btn.css": "/static/media/twitter.6f0222bd.svg",
    "static/media/account-active.3786bd5a.svg": "/static/media/account-active.3786bd5a.svg",
    "static/media/account.ecf624cd.svg": "/static/media/account.ecf624cd.svg",
    "static/media/acd__arrow.e2131a65.svg": "/static/media/acd__arrow.e2131a65.svg",
    "static/media/addImg-hover.a5dc3fb7.svg": "/static/media/addImg-hover.a5dc3fb7.svg",
    "static/media/album-hover.4139e353.svg": "/static/media/album-hover.4139e353.svg",
    "static/media/Chat.css": "/static/media/triangle.f6ef7c28.svg",
    "static/media/attorneyApplicationList.885d78b8.svg": "/static/media/attorneyApplicationList.885d78b8.svg",
    "static/media/attorneyedit.5b6580ab.svg": "/static/media/attorneyedit.5b6580ab.svg",
    "static/media/Account.css": "/static/media/btn-arrow.c4b82442.svg",
    "static/media/chat-active.9e3e5a6f.svg": "/static/media/chat-active.9e3e5a6f.svg",
    "static/media/chat-hambuger-close.1f74734c.svg": "/static/media/chat-hambuger-close.1f74734c.svg",
    "static/media/chat-hambuger-open.f35d8586.svg": "/static/media/chat-hambuger-open.f35d8586.svg",
    "static/media/chat.b4b05e37.svg": "/static/media/chat.b4b05e37.svg",
=======
    "static/js/0.ac37b6bc.chunk.js": "/static/js/0.ac37b6bc.chunk.js",
    "static/js/0.ac37b6bc.chunk.js.map": "/static/js/0.ac37b6bc.chunk.js.map",
    "main.css": "/static/css/main.819d1cff.chunk.css",
    "main.js": "/static/js/main.acb7331b.chunk.js",
    "main.js.map": "/static/js/main.acb7331b.chunk.js.map",
    "polyfills-dom.js": "/static/js/polyfills-dom.29c260d9.chunk.js",
    "polyfills-dom.js.map": "/static/js/polyfills-dom.29c260d9.chunk.js.map",
    "runtime-main.js": "/static/js/runtime-main.18f5fc7c.js",
    "runtime-main.js.map": "/static/js/runtime-main.18f5fc7c.js.map",
    "static/css/4.70022709.chunk.css": "/static/css/4.70022709.chunk.css",
    "static/js/4.563ee5e7.chunk.js": "/static/js/4.563ee5e7.chunk.js",
    "static/js/4.563ee5e7.chunk.js.map": "/static/js/4.563ee5e7.chunk.js.map",
    "static/js/5.af536c09.chunk.js": "/static/js/5.af536c09.chunk.js",
    "static/js/5.af536c09.chunk.js.map": "/static/js/5.af536c09.chunk.js.map",
    "static/js/6.7955a577.chunk.js": "/static/js/6.7955a577.chunk.js",
    "static/js/6.7955a577.chunk.js.map": "/static/js/6.7955a577.chunk.js.map",
    "static/js/7.cebdb9ce.chunk.js": "/static/js/7.cebdb9ce.chunk.js",
    "static/js/7.cebdb9ce.chunk.js.map": "/static/js/7.cebdb9ce.chunk.js.map",
    "static/js/8.26bb1ca9.chunk.js": "/static/js/8.26bb1ca9.chunk.js",
    "static/js/8.26bb1ca9.chunk.js.map": "/static/js/8.26bb1ca9.chunk.js.map",
    "static/js/9.d39ec0d8.chunk.js": "/static/js/9.d39ec0d8.chunk.js",
    "static/js/9.d39ec0d8.chunk.js.map": "/static/js/9.d39ec0d8.chunk.js.map",
    "static/js/10.fab69c7c.chunk.js": "/static/js/10.fab69c7c.chunk.js",
    "static/js/10.fab69c7c.chunk.js.map": "/static/js/10.fab69c7c.chunk.js.map",
    "static/js/11.53b5021b.chunk.js": "/static/js/11.53b5021b.chunk.js",
    "static/js/11.53b5021b.chunk.js.map": "/static/js/11.53b5021b.chunk.js.map",
    "static/js/12.ac2e1925.chunk.js": "/static/js/12.ac2e1925.chunk.js",
    "static/js/12.ac2e1925.chunk.js.map": "/static/js/12.ac2e1925.chunk.js.map",
    "static/js/13.f3aafe2b.chunk.js": "/static/js/13.f3aafe2b.chunk.js",
    "static/js/13.f3aafe2b.chunk.js.map": "/static/js/13.f3aafe2b.chunk.js.map",
    "static/js/14.c7e078e9.chunk.js": "/static/js/14.c7e078e9.chunk.js",
    "static/js/14.c7e078e9.chunk.js.map": "/static/js/14.c7e078e9.chunk.js.map",
    "static/js/15.6a39855a.chunk.js": "/static/js/15.6a39855a.chunk.js",
    "static/js/15.6a39855a.chunk.js.map": "/static/js/15.6a39855a.chunk.js.map",
    "static/js/16.0ae8d0b6.chunk.js": "/static/js/16.0ae8d0b6.chunk.js",
    "static/js/16.0ae8d0b6.chunk.js.map": "/static/js/16.0ae8d0b6.chunk.js.map",
    "static/js/17.001409fc.chunk.js": "/static/js/17.001409fc.chunk.js",
    "static/js/17.001409fc.chunk.js.map": "/static/js/17.001409fc.chunk.js.map",
    "static/js/18.f75a561a.chunk.js": "/static/js/18.f75a561a.chunk.js",
    "static/js/18.f75a561a.chunk.js.map": "/static/js/18.f75a561a.chunk.js.map",
    "static/js/19.6459b24e.chunk.js": "/static/js/19.6459b24e.chunk.js",
    "static/js/19.6459b24e.chunk.js.map": "/static/js/19.6459b24e.chunk.js.map",
    "static/js/20.722109de.chunk.js": "/static/js/20.722109de.chunk.js",
    "static/js/20.722109de.chunk.js.map": "/static/js/20.722109de.chunk.js.map",
    "static/js/21.88257d95.chunk.js": "/static/js/21.88257d95.chunk.js",
    "static/js/21.88257d95.chunk.js.map": "/static/js/21.88257d95.chunk.js.map",
    "static/js/22.4aec2498.chunk.js": "/static/js/22.4aec2498.chunk.js",
    "static/js/22.4aec2498.chunk.js.map": "/static/js/22.4aec2498.chunk.js.map",
    "static/js/23.fc17020d.chunk.js": "/static/js/23.fc17020d.chunk.js",
    "static/js/23.fc17020d.chunk.js.map": "/static/js/23.fc17020d.chunk.js.map",
    "static/js/24.7a15ff67.chunk.js": "/static/js/24.7a15ff67.chunk.js",
    "static/js/24.7a15ff67.chunk.js.map": "/static/js/24.7a15ff67.chunk.js.map",
    "static/js/25.3aa1b77a.chunk.js": "/static/js/25.3aa1b77a.chunk.js",
    "static/js/25.3aa1b77a.chunk.js.map": "/static/js/25.3aa1b77a.chunk.js.map",
    "static/js/26.a133592a.chunk.js": "/static/js/26.a133592a.chunk.js",
    "static/js/26.a133592a.chunk.js.map": "/static/js/26.a133592a.chunk.js.map",
    "static/js/27.c476818b.chunk.js": "/static/js/27.c476818b.chunk.js",
    "static/js/27.c476818b.chunk.js.map": "/static/js/27.c476818b.chunk.js.map",
    "static/js/28.4dafe98b.chunk.js": "/static/js/28.4dafe98b.chunk.js",
    "static/js/28.4dafe98b.chunk.js.map": "/static/js/28.4dafe98b.chunk.js.map",
    "static/js/29.19ae16e4.chunk.js": "/static/js/29.19ae16e4.chunk.js",
    "static/js/29.19ae16e4.chunk.js.map": "/static/js/29.19ae16e4.chunk.js.map",
    "static/js/30.50cf0957.chunk.js": "/static/js/30.50cf0957.chunk.js",
    "static/js/30.50cf0957.chunk.js.map": "/static/js/30.50cf0957.chunk.js.map",
    "static/js/31.6259cc4c.chunk.js": "/static/js/31.6259cc4c.chunk.js",
    "static/js/31.6259cc4c.chunk.js.map": "/static/js/31.6259cc4c.chunk.js.map",
    "static/js/32.0ca88003.chunk.js": "/static/js/32.0ca88003.chunk.js",
    "static/js/32.0ca88003.chunk.js.map": "/static/js/32.0ca88003.chunk.js.map",
    "static/js/33.e50d7047.chunk.js": "/static/js/33.e50d7047.chunk.js",
    "static/js/33.e50d7047.chunk.js.map": "/static/js/33.e50d7047.chunk.js.map",
    "static/js/34.82d5d177.chunk.js": "/static/js/34.82d5d177.chunk.js",
    "static/js/34.82d5d177.chunk.js.map": "/static/js/34.82d5d177.chunk.js.map",
    "static/js/35.6fd85e47.chunk.js": "/static/js/35.6fd85e47.chunk.js",
    "static/js/35.6fd85e47.chunk.js.map": "/static/js/35.6fd85e47.chunk.js.map",
    "static/js/36.b625a51c.chunk.js": "/static/js/36.b625a51c.chunk.js",
    "static/js/36.b625a51c.chunk.js.map": "/static/js/36.b625a51c.chunk.js.map",
    "static/js/37.83003f4c.chunk.js": "/static/js/37.83003f4c.chunk.js",
    "static/js/37.83003f4c.chunk.js.map": "/static/js/37.83003f4c.chunk.js.map",
    "static/js/38.1190e7b0.chunk.js": "/static/js/38.1190e7b0.chunk.js",
    "static/js/38.1190e7b0.chunk.js.map": "/static/js/38.1190e7b0.chunk.js.map",
    "static/js/39.a3701497.chunk.js": "/static/js/39.a3701497.chunk.js",
    "static/js/39.a3701497.chunk.js.map": "/static/js/39.a3701497.chunk.js.map",
    "static/js/40.f8b4c0d5.chunk.js": "/static/js/40.f8b4c0d5.chunk.js",
    "static/js/40.f8b4c0d5.chunk.js.map": "/static/js/40.f8b4c0d5.chunk.js.map",
    "static/js/41.7a322f3a.chunk.js": "/static/js/41.7a322f3a.chunk.js",
    "static/js/41.7a322f3a.chunk.js.map": "/static/js/41.7a322f3a.chunk.js.map",
    "static/js/42.b6befc71.chunk.js": "/static/js/42.b6befc71.chunk.js",
    "static/js/42.b6befc71.chunk.js.map": "/static/js/42.b6befc71.chunk.js.map",
    "static/js/43.d2f2ddfb.chunk.js": "/static/js/43.d2f2ddfb.chunk.js",
    "static/js/43.d2f2ddfb.chunk.js.map": "/static/js/43.d2f2ddfb.chunk.js.map",
    "static/js/44.a0cf6bad.chunk.js": "/static/js/44.a0cf6bad.chunk.js",
    "static/js/44.a0cf6bad.chunk.js.map": "/static/js/44.a0cf6bad.chunk.js.map",
    "static/js/45.4fb28fee.chunk.js": "/static/js/45.4fb28fee.chunk.js",
    "static/js/45.4fb28fee.chunk.js.map": "/static/js/45.4fb28fee.chunk.js.map",
    "static/js/46.52be9863.chunk.js": "/static/js/46.52be9863.chunk.js",
    "static/js/46.52be9863.chunk.js.map": "/static/js/46.52be9863.chunk.js.map",
    "static/js/47.e1a61766.chunk.js": "/static/js/47.e1a61766.chunk.js",
    "static/js/47.e1a61766.chunk.js.map": "/static/js/47.e1a61766.chunk.js.map",
    "static/js/48.dd67bf3b.chunk.js": "/static/js/48.dd67bf3b.chunk.js",
    "static/js/48.dd67bf3b.chunk.js.map": "/static/js/48.dd67bf3b.chunk.js.map",
    "static/js/49.405eee6f.chunk.js": "/static/js/49.405eee6f.chunk.js",
    "static/js/49.405eee6f.chunk.js.map": "/static/js/49.405eee6f.chunk.js.map",
    "static/js/50.e12c7c70.chunk.js": "/static/js/50.e12c7c70.chunk.js",
    "static/js/50.e12c7c70.chunk.js.map": "/static/js/50.e12c7c70.chunk.js.map",
    "static/js/51.27f47935.chunk.js": "/static/js/51.27f47935.chunk.js",
    "static/js/51.27f47935.chunk.js.map": "/static/js/51.27f47935.chunk.js.map",
    "static/js/52.cec46b51.chunk.js": "/static/js/52.cec46b51.chunk.js",
    "static/js/52.cec46b51.chunk.js.map": "/static/js/52.cec46b51.chunk.js.map",
    "static/js/53.5d683637.chunk.js": "/static/js/53.5d683637.chunk.js",
    "static/js/53.5d683637.chunk.js.map": "/static/js/53.5d683637.chunk.js.map",
    "static/js/54.b290448d.chunk.js": "/static/js/54.b290448d.chunk.js",
    "static/js/54.b290448d.chunk.js.map": "/static/js/54.b290448d.chunk.js.map",
    "static/js/55.f60afa5d.chunk.js": "/static/js/55.f60afa5d.chunk.js",
    "static/js/55.f60afa5d.chunk.js.map": "/static/js/55.f60afa5d.chunk.js.map",
    "static/js/56.35b331f2.chunk.js": "/static/js/56.35b331f2.chunk.js",
    "static/js/56.35b331f2.chunk.js.map": "/static/js/56.35b331f2.chunk.js.map",
    "static/js/57.9a170db4.chunk.js": "/static/js/57.9a170db4.chunk.js",
    "static/js/57.9a170db4.chunk.js.map": "/static/js/57.9a170db4.chunk.js.map",
    "index.html": "/index.html",
    "static/css/4.70022709.chunk.css.map": "/static/css/4.70022709.chunk.css.map",
    "static/css/main.819d1cff.chunk.css.map": "/static/css/main.819d1cff.chunk.css.map",
    "static/js/4.563ee5e7.chunk.js.LICENSE.txt": "/static/js/4.563ee5e7.chunk.js.LICENSE.txt",
    "static/js/52.cec46b51.chunk.js.LICENSE.txt": "/static/js/52.cec46b51.chunk.js.LICENSE.txt",
    "static/js/polyfills-dom.29c260d9.chunk.js.LICENSE.txt": "/static/js/polyfills-dom.29c260d9.chunk.js.LICENSE.txt",
    "static/media/Btn.css": "/static/media/twitter.41b942fe.svg",
    "static/media/account-active.86fa9f8b.svg": "/static/media/account-active.86fa9f8b.svg",
    "static/media/account.370c32a4.svg": "/static/media/account.370c32a4.svg",
    "static/media/acd__arrow.42ed1f54.svg": "/static/media/acd__arrow.42ed1f54.svg",
    "static/media/addImg-hover.e81759fa.svg": "/static/media/addImg-hover.e81759fa.svg",
    "static/media/album-hover.b3139aa8.svg": "/static/media/album-hover.b3139aa8.svg",
    "static/media/Chat.css": "/static/media/triangle.3176a42f.svg",
    "static/media/attorneyApplicationList.fb2a41b9.svg": "/static/media/attorneyApplicationList.fb2a41b9.svg",
    "static/media/attorneyedit.9f46e591.svg": "/static/media/attorneyedit.9f46e591.svg",
    "static/media/Account.css": "/static/media/btn-arrow.083ec127.svg",
    "static/media/chat-active.7092ca8c.svg": "/static/media/chat-active.7092ca8c.svg",
    "static/media/chat-hambuger-close.c4a50b02.svg": "/static/media/chat-hambuger-close.c4a50b02.svg",
    "static/media/chat-hambuger-open.727d01dc.svg": "/static/media/chat-hambuger-open.727d01dc.svg",
    "static/media/chat.3ba41f62.svg": "/static/media/chat.3ba41f62.svg",
>>>>>>> 2204055c1e884579b03b3b3270b5578f2953cde7
    "static/media/demo.e9d12a7e.jpg": "/static/media/demo.e9d12a7e.jpg",
    "static/media/detail__icon.8999d216.svg": "/static/media/detail__icon.8999d216.svg",
    "static/media/accordion.css": "/static/media/external__link__icon.5ed68f60.svg",
    "static/media/SideBar.css": "/static/media/gaibu.2a0cfad4.svg",
    "static/media/home-active.af7874f3.svg": "/static/media/home-active.af7874f3.svg",
    "static/media/home.a2acee17.svg": "/static/media/home.a2acee17.svg",
    "static/media/ArrivalsList.css": "/static/media/icon-arrow-white-down.4dde749c.svg",
    "static/media/icon-order.89b0045d.svg": "/static/media/icon-order.89b0045d.svg",
    "static/media/icon_checkmark-red.822518b5.svg": "/static/media/icon_checkmark-red.822518b5.svg",
    "static/media/info__icon.eb643683.svg": "/static/media/info__icon.eb643683.svg",
    "static/media/list-active.83bc4714.svg": "/static/media/list-active.83bc4714.svg",
    "static/media/list.31604de0.svg": "/static/media/list.31604de0.svg",
    "static/media/logo.8222ded0.svg": "/static/media/logo.8222ded0.svg",
    "static/media/message-submit-button-red.286bfbe1.svg": "/static/media/message-submit-button-red.286bfbe1.svg",
    "static/media/message-submit-button.377793b8.svg": "/static/media/message-submit-button.377793b8.svg",
    "static/media/modal.css": "/static/media/modal__close__btn.16790810.svg",
    "static/media/ms-excel-icon.069fb194.svg": "/static/media/ms-excel-icon.069fb194.svg",
    "static/media/ms-powerpoint-icon.b5f2debb.svg": "/static/media/ms-powerpoint-icon.b5f2debb.svg",
    "static/media/ms-word-icon.ddcd2e17.svg": "/static/media/ms-word-icon.ddcd2e17.svg",
    "static/media/noimage.a0417055.svg": "/static/media/noimage.a0417055.svg",
    "static/media/nowloading.e9801b5b.svg": "/static/media/nowloading.e9801b5b.svg",
    "static/media/offer-hover.5a670878.svg": "/static/media/offer-hover.5a670878.svg",
    "static/media/pc-message-album.a1f81434.svg": "/static/media/pc-message-album.a1f81434.svg",
    "static/media/pc-message-menu.94b730a0.svg": "/static/media/pc-message-menu.94b730a0.svg",
    "static/media/pc-message-offer.634cd74e.svg": "/static/media/pc-message-offer.634cd74e.svg",
    "static/media/plan__icon.f4b14d32.svg": "/static/media/plan__icon.f4b14d32.svg",
    "static/media/Form.css": "/static/media/select__arrow.4dde749c.svg",
    "static/media/sp-message-album.8cdfff17.svg": "/static/media/sp-message-album.8cdfff17.svg",
    "static/media/sp-message-docs.111d9116.svg": "/static/media/sp-message-docs.111d9116.svg",
    "static/media/sp-message-offer.82cc7275.svg": "/static/media/sp-message-offer.82cc7275.svg",
    "static/media/sp-message-photo.2df8c6e9.svg": "/static/media/sp-message-photo.2df8c6e9.svg",
    "static/media/toplogo.1365d02f.svg": "/static/media/toplogo.1365d02f.svg",
    "static/media/tutorial-add.23b329e4.svg": "/static/media/tutorial-add.23b329e4.svg",
    "static/media/tutorial_applicant_home_1_pc.a3466029.png": "/static/media/tutorial_applicant_home_1_pc.a3466029.png",
    "static/media/tutorial_applicant_home_1_sp.4ae627f8.png": "/static/media/tutorial_applicant_home_1_sp.4ae627f8.png",
    "static/media/tutorial_applicant_home_2_pc.4ee5356b.png": "/static/media/tutorial_applicant_home_2_pc.4ee5356b.png",
    "static/media/tutorial_applicant_home_2_sp.3388ffe2.png": "/static/media/tutorial_applicant_home_2_sp.3388ffe2.png",
    "static/media/tutorial_applicant_home_3_pc.eb975126.png": "/static/media/tutorial_applicant_home_3_pc.eb975126.png",
    "static/media/tutorial_applicant_home_3_sp.e122ef06.png": "/static/media/tutorial_applicant_home_3_sp.e122ef06.png",
    "static/media/tutorial_applicant_home_4_pc.3aa0518a.png": "/static/media/tutorial_applicant_home_4_pc.3aa0518a.png",
    "static/media/tutorial_applicant_home_4_sp.cfdd5544.png": "/static/media/tutorial_applicant_home_4_sp.cfdd5544.png",
    "static/media/tutorial_attorney_home_1_pc.fa5e180b.png": "/static/media/tutorial_attorney_home_1_pc.fa5e180b.png",
    "static/media/tutorial_attorney_home_1_sp.7219e837.png": "/static/media/tutorial_attorney_home_1_sp.7219e837.png",
    "static/media/tutorial_attorney_home_2_pc.0a71d1a1.png": "/static/media/tutorial_attorney_home_2_pc.0a71d1a1.png",
    "static/media/tutorial_attorney_home_2_sp.e111221a.png": "/static/media/tutorial_attorney_home_2_sp.e111221a.png",
    "static/media/tutorial_attorney_home_3_pc.39778042.png": "/static/media/tutorial_attorney_home_3_pc.39778042.png",
    "static/media/tutorial_attorney_home_3_sp.3f58a4ef.png": "/static/media/tutorial_attorney_home_3_sp.3f58a4ef.png",
    "static/media/tutorial_attorney_home_4_pc.b42c5a02.png": "/static/media/tutorial_attorney_home_4_pc.b42c5a02.png",
    "static/media/tutorial_attorney_home_4_sp.672f181e.png": "/static/media/tutorial_attorney_home_4_sp.672f181e.png",
    "static/media/tutorial_chat_1_pc.c6a1bc9f.png": "/static/media/tutorial_chat_1_pc.c6a1bc9f.png",
    "static/media/tutorial_chat_1_sp.5e0547ad.png": "/static/media/tutorial_chat_1_sp.5e0547ad.png",
    "static/media/tutorial_chat_2_pc.ae93ae1a.png": "/static/media/tutorial_chat_2_pc.ae93ae1a.png",
    "static/media/tutorial_chat_2_sp.7c88a68f.png": "/static/media/tutorial_chat_2_sp.7c88a68f.png",
    "static/media/user__icon.114b0b34.svg": "/static/media/user__icon.114b0b34.svg"
  },
  "entrypoints": [
<<<<<<< HEAD
    "static/js/runtime-main.58b2cc3d.js",
    "static/css/4.70022709.chunk.css",
    "static/js/4.f624b172.chunk.js",
    "static/css/main.1f6c2dd6.chunk.css",
    "static/js/main.e316159e.chunk.js"
=======
    "static/js/runtime-main.18f5fc7c.js",
    "static/css/4.70022709.chunk.css",
    "static/js/4.563ee5e7.chunk.js",
    "static/css/main.819d1cff.chunk.css",
    "static/js/main.acb7331b.chunk.js"
>>>>>>> 2204055c1e884579b03b3b3270b5578f2953cde7
  ]
}