<svg xmlns="http://www.w3.org/2000/svg" width="14" height="13.994" viewBox="0 0 14 13.994">
  <g id="人物のアイコン素材_その3" data-name="人物のアイコン素材 その3" transform="translate(0 -0.111)">
    <path id="Path_65" data-name="Path 65" d="M118.646,7.834a3.861,3.861,0,1,0-3.861-3.861A3.861,3.861,0,0,0,118.646,7.834Z" transform="translate(-111.646)" fill="#cb0015"/>
    <path id="Path_66" data-name="Path 66" d="M13.774,330.024c-.818-2.515-3.821-3.885-6.774-3.885s-5.956,1.37-6.774,3.885A4.72,4.72,0,0,0,0,331.218H14A4.734,4.734,0,0,0,13.774,330.024Z" transform="translate(0 -317.113)" fill="#cb0015"/>
  </g>
</svg>
